From	To	Distance	Travel Time	Airfare
Delhi	Mumbai	1148	02:10	INR 6000
Delhi	London	6704	08:55	INR 37000
Delhi	Frankfurt	6117	08:35	Inr 32000
Los Angeles	Tokyo	8773	11:15	USD 520
Frankfurt	London	660	01:25	Eur 155
